# Fdb version 3
["bibtex template"] 1561660792 "template.aux" "template.bbl" "template" 1561660792
  "/usr/share/texlive/texmf-dist/bibtex/bst/base/plain.bst" 1480098433 20613 bd3fbfa9f64872b81ac57a0dd2ed855f ""
  "template.aux" 1561487655 1361 4866c9a8f6e175a696f10a24193f8121 "pdflatex"
  "template.bib" 0 -1 0 ""
  (generated)
  "template.blg"
  "template.bbl"
["pdflatex"] 1561136471 "template.tex" "template.pdf" "template" 1561660792
  "/home/christopherblackman/.texlive2017/texmf-var/web2c/pdftex/pdflatex.fmt" 1548909074 3516957 0ec2170613bbda5aca4d305cee77781d ""
  "/usr/share/texlive/texmf-dist/fonts/enc/dvips/base/8r.enc" 1480098666 4850 80dc9bab7f31fb78a000ccfed0e27cab ""
  "/usr/share/texlive/texmf-dist/fonts/map/fontname/texfonts.map" 1272929888 3287 e6b82fe08f5336d4d5ebc73fb1152e87 ""
  "/usr/share/texlive/texmf-dist/fonts/map/pdftex/updmap/pdftex.map" 1534175731 1888239 1634854f38efe22f5ce23e01dbe546f0 ""
  "/usr/share/texlive/texmf-dist/fonts/tfm/public/amsfonts/symbols/msam10.tfm" 1246382020 916 f87d7c45f9c908e672703b83b72241a3 ""
  "/usr/share/texlive/texmf-dist/fonts/tfm/public/amsfonts/symbols/msam7.tfm" 1246382020 928 2dc8d444221b7a635bb58038579b861a ""
  "/usr/share/texlive/texmf-dist/fonts/tfm/public/amsfonts/symbols/msbm10.tfm" 1246382020 908 2921f8a10601f252058503cc6570e581 ""
  "/usr/share/texlive/texmf-dist/fonts/tfm/public/amsfonts/symbols/msbm7.tfm" 1246382020 940 228d6584342e91276bf566bcf9716b83 ""
  "/usr/share/texlive/texmf-dist/fonts/tfm/public/cm/cmb10.tfm" 1136768653 1336 fb32298c2d61d0c4b59f3065fdd6def9 ""
  "/usr/share/texlive/texmf-dist/fonts/tfm/public/cm/cmr10.tfm" 1136768653 1296 45809c5a464d5f32c8f98ba97c1bb47f ""
  "/usr/share/texlive/texmf-dist/fonts/tfm/public/cm/cmti10.tfm" 1136768653 1480 aa8e34af0eb6a2941b776984cf1dfdc4 ""
  "/usr/share/texlive/texmf-dist/fonts/tfm/public/kpfonts/jkpbn7t.tfm" 1240420913 4168 1cc01518218b768b26664ac8264a1dfa ""
  "/usr/share/texlive/texmf-dist/fonts/tfm/public/kpfonts/jkpbn8r.tfm" 1240420913 1704 3498d78dbc645488e6991702d2fcd9f1 ""
  "/usr/share/texlive/texmf-dist/fonts/tfm/public/kpfonts/jkpbne.tfm" 1240420913 1476 e4f5cafc64b9daf0d44d4aebfd40a855 ""
  "/usr/share/texlive/texmf-dist/fonts/tfm/public/kpfonts/jkpex.tfm" 1268268695 1420 916081528bdeafb19bca325e7b18bd9e ""
  "/usr/share/texlive/texmf-dist/fonts/tfm/public/kpfonts/jkpexa.tfm" 1240420913 1296 db149dfb5b2371c6e3d282e2f4424eaf ""
  "/usr/share/texlive/texmf-dist/fonts/tfm/public/kpfonts/jkpmi.tfm" 1268268695 2392 1ee08a0b7a0370405809b47b71fb21cc ""
  "/usr/share/texlive/texmf-dist/fonts/tfm/public/kpfonts/jkpmia.tfm" 1268268695 1612 9a32a530da503a405d14b95b5156c033 ""
  "/usr/share/texlive/texmf-dist/fonts/tfm/public/kpfonts/jkpmit7t.tfm" 1240420913 3960 414eb8c5a75c203c7cceb1bdeb1103b3 ""
  "/usr/share/texlive/texmf-dist/fonts/tfm/public/kpfonts/jkpmit8r.tfm" 1240420913 1780 c364372d22986d8083e32d38d690691b ""
  "/usr/share/texlive/texmf-dist/fonts/tfm/public/kpfonts/jkpmite.tfm" 1240420913 1572 a7ac5688fb5d5ec69856c07a91827f5c ""
  "/usr/share/texlive/texmf-dist/fonts/tfm/public/kpfonts/jkpmn7t.tfm" 1240420913 4124 99bbc9c09bed751cdc245db4fb9644ff ""
  "/usr/share/texlive/texmf-dist/fonts/tfm/public/kpfonts/jkpmn8r.tfm" 1240420913 1728 01ec3b6a814daf3492bb99c6bf6dcf8d ""
  "/usr/share/texlive/texmf-dist/fonts/tfm/public/kpfonts/jkpmne.tfm" 1240420913 1492 3cce7d7b67660bfd355425290695c6a6 ""
  "/usr/share/texlive/texmf-dist/fonts/tfm/public/kpfonts/jkpmsc7t.tfm" 1240420913 4220 f0ad94582042015a892a219db27def07 ""
  "/usr/share/texlive/texmf-dist/fonts/tfm/public/kpfonts/jkpmsc8r.tfm" 1240420913 1704 6f2239b6d45e3a0a0ec92fd8286c5d81 ""
  "/usr/share/texlive/texmf-dist/fonts/tfm/public/kpfonts/jkpmsce.tfm" 1240420913 1428 b55a244ab96dffd28471fb415b3ad4f0 ""
  "/usr/share/texlive/texmf-dist/fonts/tfm/public/kpfonts/jkpssbn7t.tfm" 1240420913 3884 8250d171a5d4a1b4445977e414035558 ""
  "/usr/share/texlive/texmf-dist/fonts/tfm/public/kpfonts/jkpssbn8r.tfm" 1240420913 1732 9c4a71a7c3810f6410f82b60303529d7 ""
  "/usr/share/texlive/texmf-dist/fonts/tfm/public/kpfonts/jkpssbne.tfm" 1240420913 1456 f4adf85107a3172d4b708b02d4b9026e ""
  "/usr/share/texlive/texmf-dist/fonts/tfm/public/kpfonts/jkpssmn7t.tfm" 1240420913 3764 47434c5c38d17b52228b511d9037b029 ""
  "/usr/share/texlive/texmf-dist/fonts/tfm/public/kpfonts/jkpsy.tfm" 1240420913 1324 37a02294e3708c32520057020841c334 ""
  "/usr/share/texlive/texmf-dist/fonts/tfm/public/kpfonts/jkpsyc.tfm" 1240420913 1028 a2825e2c40d04ba8c0af3998464d86e1 ""
  "/usr/share/texlive/texmf-dist/fonts/type1/public/amsfonts/symbols/msam10.pfb" 1248133631 31764 459c573c03a4949a528c2cc7f557e217 ""
  "/usr/share/texlive/texmf-dist/fonts/type1/public/kpfonts/jkpbn8a.pfb" 1240420913 32613 389be7e28026f4a9ed02e6bc2426509b ""
  "/usr/share/texlive/texmf-dist/fonts/type1/public/kpfonts/jkpmi.pfb" 1268268695 29813 d05f8d6ea0d8afa920af22dddafc33f2 ""
  "/usr/share/texlive/texmf-dist/fonts/type1/public/kpfonts/jkpmit8a.pfb" 1268268695 37692 ff65f49f493de879aca846e1811bfa1f ""
  "/usr/share/texlive/texmf-dist/fonts/type1/public/kpfonts/jkpmn8a.pfb" 1240420913 35294 e88bb6b7bdd82f594dee041ddea9423c ""
  "/usr/share/texlive/texmf-dist/fonts/type1/public/kpfonts/jkpmsc8a.pfb" 1240420913 35145 c0d7a82f6be81407f39e1a6922b63148 ""
  "/usr/share/texlive/texmf-dist/fonts/type1/public/kpfonts/jkpssbn8a.pfb" 1271810743 26954 1b00d15ea1c8813fb0d430277fda3637 ""
  "/usr/share/texlive/texmf-dist/fonts/type1/public/kpfonts/jkpsy.pfb" 1201048802 25860 1e4d17fc7bf1d0b47e9b47e6099f1971 ""
  "/usr/share/texlive/texmf-dist/fonts/vf/public/kpfonts/jkpbn7t.vf" 1240420913 984 cb10e437de92fc0b8181a6322b62c9aa ""
  "/usr/share/texlive/texmf-dist/fonts/vf/public/kpfonts/jkpmit7t.vf" 1240420913 988 c5856e737f2ded6ac9fd6b4b9c4edaf8 ""
  "/usr/share/texlive/texmf-dist/fonts/vf/public/kpfonts/jkpmn7t.vf" 1240420913 984 276aff85044bc68260a465c2ce58c070 ""
  "/usr/share/texlive/texmf-dist/fonts/vf/public/kpfonts/jkpmsc7t.vf" 1240420913 976 feeb42b10332287f3c08710ea5ccaa95 ""
  "/usr/share/texlive/texmf-dist/fonts/vf/public/kpfonts/jkpssbn7t.vf" 1240420913 988 20fd14b00b2068cf6c4478e417296a98 ""
  "/usr/share/texlive/texmf-dist/tex/context/base/mkii/supp-pdf.mkii" 1480098806 71627 94eb9990bed73c364d7f53f960cc8c5b ""
  "/usr/share/texlive/texmf-dist/tex/generic/babel-english/english.ldf" 1367878877 6963 2e0cb3d93aa64508bdb0db58ae900d97 ""
  "/usr/share/texlive/texmf-dist/tex/generic/babel/babel.def" 1461448269 50112 8190990703f12b57db0dfe9b839e1e24 ""
  "/usr/share/texlive/texmf-dist/tex/generic/babel/babel.sty" 1461448269 13499 2379954ebbdf3db89eccb32499d2da36 ""
  "/usr/share/texlive/texmf-dist/tex/generic/ifxetex/ifxetex.sty" 1284331290 1458 43ab4710dc82f3edeabecd0d099626b2 ""
  "/usr/share/texlive/texmf-dist/tex/generic/oberdiek/gettitlestring.sty" 1480098815 8237 3b62ef1f7e2c23a328c814b3893bc11f ""
  "/usr/share/texlive/texmf-dist/tex/generic/oberdiek/hobsub-generic.sty" 1490564930 185082 1fb09d7d24834377f95006300bc91fd2 ""
  "/usr/share/texlive/texmf-dist/tex/generic/oberdiek/hobsub-hyperref.sty" 1480098815 70864 bcd5b216757bd619ae692a151d90085d ""
  "/usr/share/texlive/texmf-dist/tex/generic/oberdiek/infwarerr.sty" 1480098815 8253 473e0e41f9adadb1977e8631b8f72ea6 ""
  "/usr/share/texlive/texmf-dist/tex/generic/oberdiek/ltxcmds.sty" 1480098815 18425 5b3c0c59d76fac78978b5558e83c1f36 ""
  "/usr/share/texlive/texmf-dist/tex/latex/amscls/amsthm.sty" 1428861406 12225 3cca0d18522255979a1047206228b9d0 ""
  "/usr/share/texlive/texmf-dist/tex/latex/amsfonts/amsfonts.sty" 1359763108 5949 3f3fd50a8cc94c3d4cbf4fc66cd3df1c ""
  "/usr/share/texlive/texmf-dist/tex/latex/amsfonts/umsa.fd" 1359763108 961 6518c6525a34feb5e8250ffa91731cff ""
  "/usr/share/texlive/texmf-dist/tex/latex/amsfonts/umsb.fd" 1359763108 961 d02606146ba5601b5645f987c92e6193 ""
  "/usr/share/texlive/texmf-dist/tex/latex/amsmath/amsbsy.sty" 1456875012 2210 5c54ab129b848a5071554186d0168766 ""
  "/usr/share/texlive/texmf-dist/tex/latex/amsmath/amsgen.sty" 1456875012 4160 c115536cf8d4ff25aa8c1c9bc4ecb79a ""
  "/usr/share/texlive/texmf-dist/tex/latex/amsmath/amsmath.sty" 1467147727 82033 ff9a037b5bad3f86db2c1a9e5c8160c3 ""
  "/usr/share/texlive/texmf-dist/tex/latex/amsmath/amsopn.sty" 1459635588 4115 318a66090112f3aa3f415aeb6fe8540f ""
  "/usr/share/texlive/texmf-dist/tex/latex/amsmath/amstext.sty" 1456875012 2431 fe3078ec12fc30287f568596f8e0b948 ""
  "/usr/share/texlive/texmf-dist/tex/latex/base/article.cls" 1480098821 19821 310da678527a7dfe2a02c88af38079b7 ""
  "/usr/share/texlive/texmf-dist/tex/latex/base/inputenc.sty" 1480098821 4732 d63eda807ac82cca2ca8488efd31a966 ""
  "/usr/share/texlive/texmf-dist/tex/latex/base/omsenc.dfu" 1487721667 2004 ac51aeac484f08c01026120d62677eca ""
  "/usr/share/texlive/texmf-dist/tex/latex/base/ot1enc.dfu" 1487721667 3181 1cb3e9ad01f4a01127b2ffd821bfeec7 ""
  "/usr/share/texlive/texmf-dist/tex/latex/base/size11.clo" 1480098821 8308 f91506bb4df6d8527331f7bbeaf0e63c ""
  "/usr/share/texlive/texmf-dist/tex/latex/base/t1enc.dfu" 1487721667 11255 9d97362866549d3d3c994b5f28d1b9b5 ""
  "/usr/share/texlive/texmf-dist/tex/latex/base/textcomp.sty" 1492297155 16154 f2c73e20ca771d534a8516c62c6b0eae ""
  "/usr/share/texlive/texmf-dist/tex/latex/base/ts1cmr.fd" 1480098821 2217 d274654bda1292013bdf48d5f720a495 ""
  "/usr/share/texlive/texmf-dist/tex/latex/base/ts1enc.def" 1480098821 7767 aa88823823f5e767d79ea1166ab1ae74 ""
  "/usr/share/texlive/texmf-dist/tex/latex/base/ts1enc.dfu" 1487721667 4919 76510afd60e8282294f944c2f9f5103b ""
  "/usr/share/texlive/texmf-dist/tex/latex/base/utf8.def" 1487721667 7784 325a2a09984cb5c4ff230f9867145ad3 ""
  "/usr/share/texlive/texmf-dist/tex/latex/fancyhdr/fancyhdr.sty" 1160175134 20521 e5d13d98d57bd53d4fed3aa61bd29c86 ""
  "/usr/share/texlive/texmf-dist/tex/latex/graphics-cfg/color.cfg" 1459978653 1213 620bba36b25224fa9b7e1ccb4ecb76fd ""
  "/usr/share/texlive/texmf-dist/tex/latex/graphics-cfg/graphics.cfg" 1459978653 3103 f32642b1cd56c010cdfb6545539b7f0b ""
  "/usr/share/texlive/texmf-dist/tex/latex/graphics-def/pdftex.def" 1468449179 57848 020e44545ff7e21278b080e3175d3354 ""
  "/usr/share/texlive/texmf-dist/tex/latex/graphics/color.sty" 1462915952 6883 23a1cf7539666cc26042e9939b5d08c9 ""
  "/usr/share/texlive/texmf-dist/tex/latex/graphics/dvipsnam.def" 1454284088 4945 3b3a8face751255856839a3489e83341 ""
  "/usr/share/texlive/texmf-dist/tex/latex/graphics/graphics.sty" 1462915952 14391 bd64a9e5d07473b936423b5f3280ed2c ""
  "/usr/share/texlive/texmf-dist/tex/latex/graphics/graphicx.sty" 1428932888 8125 557ab9f1bfa80d369fb45a914aa8a3b4 ""
  "/usr/share/texlive/texmf-dist/tex/latex/graphics/keyval.sty" 1428932888 2594 d18d5e19aa8239cf867fa670c556d2e9 ""
  "/usr/share/texlive/texmf-dist/tex/latex/graphics/trig.sty" 1454284088 3980 0a268fbfda01e381fa95821ab13b6aee ""
  "/usr/share/texlive/texmf-dist/tex/latex/hyperref/hpdftex.def" 1518041854 51699 9069fc983fff0db91d59a15af144ad62 ""
  "/usr/share/texlive/texmf-dist/tex/latex/hyperref/hyperref.sty" 1518041854 234088 2c849389d62d41c593d9f5176c4116ab ""
  "/usr/share/texlive/texmf-dist/tex/latex/hyperref/nameref.sty" 1480098831 12949 81e4e808884a8f0e276b69410e234656 ""
  "/usr/share/texlive/texmf-dist/tex/latex/hyperref/pd1enc.def" 1518041854 14098 4e70bf396c7c265bd8b0e5cab3fd3d4d ""
  "/usr/share/texlive/texmf-dist/tex/latex/kpfonts/kpfonts.sty" 1284768416 72676 856b52ab339cd8bb2dd28d43225e99b5 ""
  "/usr/share/texlive/texmf-dist/tex/latex/kpfonts/omljkp.fd" 1177460106 445 26f1bace35a25cdb94155b5fbf5a67d4 ""
  "/usr/share/texlive/texmf-dist/tex/latex/kpfonts/omsjkp.fd" 1201048802 1616 7fef3748796a6ffce8f2ffd1956830e2 ""
  "/usr/share/texlive/texmf-dist/tex/latex/kpfonts/omxjkp.fd" 1177460106 306 dd10f36111fcddf8bc82442f71d26f9f ""
  "/usr/share/texlive/texmf-dist/tex/latex/kpfonts/ot1jkp.fd" 1221587958 1133 632cc5712ce26c7333f51ef610f28017 ""
  "/usr/share/texlive/texmf-dist/tex/latex/kpfonts/ot1jkpss.fd" 1221587958 1203 8a70ec120e6ce21192d3050719324356 ""
  "/usr/share/texlive/texmf-dist/tex/latex/kpfonts/ujkpexa.fd" 1177460106 320 b222867dc9ceaccb99f5c780072d4c87 ""
  "/usr/share/texlive/texmf-dist/tex/latex/kpfonts/ujkpmia.fd" 1177460106 326 2782e82a7edb148e7d8a2ffed10be5e5 ""
  "/usr/share/texlive/texmf-dist/tex/latex/kpfonts/ujkpsyc.fd" 1177460106 320 8b7ec5275c6b1e5ed11702a65ef13eb9 ""
  "/usr/share/texlive/texmf-dist/tex/latex/latexconfig/epstopdf-sys.cfg" 1279039959 678 4792914a8f45be57bb98413425e4c7af ""
  "/usr/share/texlive/texmf-dist/tex/latex/latexconfig/hyperref.cfg" 1254097189 235 6031e5765137be07eed51a510b2b8fb7 ""
  "/usr/share/texlive/texmf-dist/tex/latex/marvosym/marvosym.sty" 1333989323 9393 ceaf2ea8eb2c81fdb168323fc5fffc89 ""
  "/usr/share/texlive/texmf-dist/tex/latex/oberdiek/auxhook.sty" 1480098836 3834 4363110eb0ef1eb2b71c8fcbcdb6c357 ""
  "/usr/share/texlive/texmf-dist/tex/latex/oberdiek/epstopdf-base.sty" 1480098836 12095 5337833c991d80788a43d3ce26bd1c46 ""
  "/usr/share/texlive/texmf-dist/tex/latex/oberdiek/grfext.sty" 1480098836 7075 2fe3d848bba95f139de11ded085e74aa ""
  "/usr/share/texlive/texmf-dist/tex/latex/oberdiek/kvoptions.sty" 1480098836 22417 1d9df1eb66848aa31b18a593099cf45c ""
  "/usr/share/texlive/texmf-dist/tex/latex/oberdiek/rerunfilecheck.sty" 1480098836 9581 023642318cef9f4677efe364de1e2a27 ""
  "/usr/share/texlive/texmf-dist/tex/latex/titlesec/titlesec.sty" 1458858524 37387 afa86533e532701faf233f3f592c61e0 ""
  "/usr/share/texlive/texmf-dist/tex/latex/url/url.sty" 1388531844 12796 8edb7d69a20b857904dd0ea757c14ec9 ""
  "/usr/share/texlive/texmf-dist/web2c/texmf.cnf" 1541097551 32807 b0bf385e55c2928f0f920997ca426741 ""
  "pat.sty" 1561487655 3359 d02338a7bdea6d0a60e01166ce5d10ec ""
  "patmorin.cls" 1561487655 3986 b60c491619843f31f3ccc4012a9a008c ""
  "template.aux" 1561487655 1361 4866c9a8f6e175a696f10a24193f8121 "pdflatex"
  "template.bbl" 0 -1 0 "bibtex template"
  "template.out" 1561487655 203 a191276055ee1cf44022258245ed7654 "pdflatex"
  "template.tex" 1561660792 5879 38112544a1910c56b65c2e79ecc0dbbd ""
  (generated)
  "template.pdf"
  "template.log"
  "template.out"
  "template.aux"
