\relax 
\providecommand\hyper@newdestlabel[2]{}
\providecommand\HyperFirstAtBeginDocument{\AtBeginDocument}
\HyperFirstAtBeginDocument{\ifx\hyper@anchor\@undefined
\global\let\oldcontentsline\contentsline
\gdef\contentsline#1#2#3#4{\oldcontentsline{#1}{#2}{#3}}
\global\let\oldnewlabel\newlabel
\gdef\newlabel#1#2{\newlabelxx{#1}#2}
\gdef\newlabelxx#1#2#3#4#5#6{\oldnewlabel{#1}{{#2}{#3}}}
\AtEndDocument{\ifx\hyper@anchor\@undefined
\let\contentsline\oldcontentsline
\let\newlabel\oldnewlabel
\fi}
\fi}
\global\let\hyper@last\relax 
\gdef\HyperFirstAtBeginDocument#1{#1}
\providecommand\HyField@AuxAddToFields[1]{}
\providecommand\HyField@AuxAddToCoFields[2]{}
\select@language{english}
\@writefile{toc}{\select@language{english}}
\@writefile{lof}{\select@language{english}}
\@writefile{lot}{\select@language{english}}
\@writefile{toc}{\contentsline {section}{\numberline {1}Introduction}{1}{section.1}}
\@writefile{toc}{\contentsline {section}{\numberline {2}Searching On A Known Graph}{1}{section.2}}
\newlabel{lemma-subset-search}{{2.1}{1}{}{theorem.2.1}{}}
\newlabel{lemma-subset-max}{{2.2}{2}{}{theorem.2.2}{}}
\newlabel{lemma-subset-max-y}{{2.3}{2}{}{theorem.2.3}{}}
\newlabel{lemma-subset-by}{{2.4}{3}{}{theorem.2.4}{}}
\newlabel{lemma-y}{{2.4}{3}{}{theorem.2.4}{}}
\@writefile{toc}{\contentsline {section}{\numberline {3}Algorithm}{4}{section.3}}
\newlabel{lemma-subset}{{3.1}{4}{}{theorem.3.1}{}}
\newlabel{lemma-subset-rectangle}{{3.2}{5}{}{theorem.3.2}{}}
\newlabel{lemma-subset-lower-bound}{{3.3}{5}{}{theorem.3.3}{}}
\bibstyle{plain}
\bibdata{template}
\newlabel{lemma-subset-upper-bound}{{3.4}{6}{}{theorem.3.4}{}}
\newlabel{table-values}{{3}{6}{Algorithm}{theorem.3.4}{}}
\@writefile{lot}{\contentsline {table}{\numberline {1}{\ignorespaces Values that our C.R. takes given the restrictions on $b$}}{6}{table.1}}
\@writefile{toc}{\contentsline {section}{\numberline {4}Summary}{6}{section.4}}
\newlabel{sec:summary}{{4}{6}{Summary}{section.4}{}}
