# Fdb version 3
["bibtex template"] 1565978607 "template.aux" "template.bbl" "template" 1565978610
  "/usr/share/texlive/texmf-dist/bibtex/bst/base/plain.bst" 1480098433 20613 bd3fbfa9f64872b81ac57a0dd2ed855f ""
  "template.aux" 1565978607 3226 fb95b65eaccc03fd8b2cb08db4c5e529 "pdflatex"
  "template.bib" 1562812001 5386 b5a76106d21ac8dfa1d027fa0f5e5e4b ""
  (generated)
  "template.bbl"
  "template.blg"
["pdflatex"] 1565978607 "template.tex" "template.pdf" "template" 1565978610
  "/home/christopherblackman/.texlive2017/texmf-var/web2c/pdftex/pdflatex.fmt" 1548909074 3516957 0ec2170613bbda5aca4d305cee77781d ""
  "/usr/share/texlive/texmf-dist/fonts/enc/dvips/base/8r.enc" 1480098666 4850 80dc9bab7f31fb78a000ccfed0e27cab ""
  "/usr/share/texlive/texmf-dist/fonts/enc/dvips/kpfonts/kpfonts-expert.enc" 1240420913 2639 b7bbeb66c016cde6fdcad9263fe54a4a ""
  "/usr/share/texlive/texmf-dist/fonts/map/fontname/texfonts.map" 1272929888 3287 e6b82fe08f5336d4d5ebc73fb1152e87 ""
  "/usr/share/texlive/texmf-dist/fonts/map/pdftex/updmap/pdftex.map" 1534175731 1888239 1634854f38efe22f5ce23e01dbe546f0 ""
  "/usr/share/texlive/texmf-dist/fonts/tfm/public/amsfonts/symbols/msam10.tfm" 1246382020 916 f87d7c45f9c908e672703b83b72241a3 ""
  "/usr/share/texlive/texmf-dist/fonts/tfm/public/amsfonts/symbols/msam5.tfm" 1246382020 924 9904cf1d39e9767e7a3622f2a125a565 ""
  "/usr/share/texlive/texmf-dist/fonts/tfm/public/amsfonts/symbols/msam7.tfm" 1246382020 928 2dc8d444221b7a635bb58038579b861a ""
  "/usr/share/texlive/texmf-dist/fonts/tfm/public/amsfonts/symbols/msbm10.tfm" 1246382020 908 2921f8a10601f252058503cc6570e581 ""
  "/usr/share/texlive/texmf-dist/fonts/tfm/public/amsfonts/symbols/msbm5.tfm" 1246382020 940 75ac932a52f80982a9f8ea75d03a34cf ""
  "/usr/share/texlive/texmf-dist/fonts/tfm/public/amsfonts/symbols/msbm7.tfm" 1246382020 940 228d6584342e91276bf566bcf9716b83 ""
  "/usr/share/texlive/texmf-dist/fonts/tfm/public/cm/cmb10.tfm" 1136768653 1336 fb32298c2d61d0c4b59f3065fdd6def9 ""
  "/usr/share/texlive/texmf-dist/fonts/tfm/public/cm/cmr10.tfm" 1136768653 1296 45809c5a464d5f32c8f98ba97c1bb47f ""
  "/usr/share/texlive/texmf-dist/fonts/tfm/public/cm/cmti10.tfm" 1136768653 1480 aa8e34af0eb6a2941b776984cf1dfdc4 ""
  "/usr/share/texlive/texmf-dist/fonts/tfm/public/kpfonts/jkpbn7t.tfm" 1240420913 4168 1cc01518218b768b26664ac8264a1dfa ""
  "/usr/share/texlive/texmf-dist/fonts/tfm/public/kpfonts/jkpbn8r.tfm" 1240420913 1704 3498d78dbc645488e6991702d2fcd9f1 ""
  "/usr/share/texlive/texmf-dist/fonts/tfm/public/kpfonts/jkpbne.tfm" 1240420913 1476 e4f5cafc64b9daf0d44d4aebfd40a855 ""
  "/usr/share/texlive/texmf-dist/fonts/tfm/public/kpfonts/jkpex.tfm" 1268268695 1420 916081528bdeafb19bca325e7b18bd9e ""
  "/usr/share/texlive/texmf-dist/fonts/tfm/public/kpfonts/jkpexa.tfm" 1240420913 1296 db149dfb5b2371c6e3d282e2f4424eaf ""
  "/usr/share/texlive/texmf-dist/fonts/tfm/public/kpfonts/jkpmi.tfm" 1268268695 2392 1ee08a0b7a0370405809b47b71fb21cc ""
  "/usr/share/texlive/texmf-dist/fonts/tfm/public/kpfonts/jkpmia.tfm" 1268268695 1612 9a32a530da503a405d14b95b5156c033 ""
  "/usr/share/texlive/texmf-dist/fonts/tfm/public/kpfonts/jkpmit7t.tfm" 1240420913 3960 414eb8c5a75c203c7cceb1bdeb1103b3 ""
  "/usr/share/texlive/texmf-dist/fonts/tfm/public/kpfonts/jkpmit8r.tfm" 1240420913 1780 c364372d22986d8083e32d38d690691b ""
  "/usr/share/texlive/texmf-dist/fonts/tfm/public/kpfonts/jkpmite.tfm" 1240420913 1572 a7ac5688fb5d5ec69856c07a91827f5c ""
  "/usr/share/texlive/texmf-dist/fonts/tfm/public/kpfonts/jkpmn7t.tfm" 1240420913 4124 99bbc9c09bed751cdc245db4fb9644ff ""
  "/usr/share/texlive/texmf-dist/fonts/tfm/public/kpfonts/jkpmn8r.tfm" 1240420913 1728 01ec3b6a814daf3492bb99c6bf6dcf8d ""
  "/usr/share/texlive/texmf-dist/fonts/tfm/public/kpfonts/jkpmne.tfm" 1240420913 1492 3cce7d7b67660bfd355425290695c6a6 ""
  "/usr/share/texlive/texmf-dist/fonts/tfm/public/kpfonts/jkpmsc7t.tfm" 1240420913 4220 f0ad94582042015a892a219db27def07 ""
  "/usr/share/texlive/texmf-dist/fonts/tfm/public/kpfonts/jkpmsc8r.tfm" 1240420913 1704 6f2239b6d45e3a0a0ec92fd8286c5d81 ""
  "/usr/share/texlive/texmf-dist/fonts/tfm/public/kpfonts/jkpmsce.tfm" 1240420913 1428 b55a244ab96dffd28471fb415b3ad4f0 ""
  "/usr/share/texlive/texmf-dist/fonts/tfm/public/kpfonts/jkpssbn7t.tfm" 1240420913 3884 8250d171a5d4a1b4445977e414035558 ""
  "/usr/share/texlive/texmf-dist/fonts/tfm/public/kpfonts/jkpssbn8r.tfm" 1240420913 1732 9c4a71a7c3810f6410f82b60303529d7 ""
  "/usr/share/texlive/texmf-dist/fonts/tfm/public/kpfonts/jkpssbne.tfm" 1240420913 1456 f4adf85107a3172d4b708b02d4b9026e ""
  "/usr/share/texlive/texmf-dist/fonts/tfm/public/kpfonts/jkpssmn7t.tfm" 1240420913 3764 47434c5c38d17b52228b511d9037b029 ""
  "/usr/share/texlive/texmf-dist/fonts/tfm/public/kpfonts/jkpsy.tfm" 1240420913 1324 37a02294e3708c32520057020841c334 ""
  "/usr/share/texlive/texmf-dist/fonts/tfm/public/kpfonts/jkpsyc.tfm" 1240420913 1028 a2825e2c40d04ba8c0af3998464d86e1 ""
  "/usr/share/texlive/texmf-dist/fonts/tfm/public/kpfonts/jkpttmn7t.tfm" 1240420913 956 358caa85cce4717dc131d9943e141e2a ""
  "/usr/share/texlive/texmf-dist/fonts/tfm/public/kpfonts/jkpttmn8r.tfm" 1240420913 1260 fd61ad79456aa267078b3d91d3fd9a50 ""
  "/usr/share/texlive/texmf-dist/fonts/tfm/public/kpfonts/jkpttmne.tfm" 1240420913 1208 64d9ff6faba311f1b1b268db95c6ee67 ""
  "/usr/share/texlive/texmf-dist/fonts/tfm/public/marvosym/umvs.tfm" 1313968873 1772 135d23849cb646acc6bb1ae8d73e3f78 ""
  "/usr/share/texlive/texmf-dist/fonts/type1/public/amsfonts/symbols/msam10.pfb" 1248133631 31764 459c573c03a4949a528c2cc7f557e217 ""
  "/usr/share/texlive/texmf-dist/fonts/type1/public/kpfonts/jkpbn8a.pfb" 1240420913 32613 389be7e28026f4a9ed02e6bc2426509b ""
  "/usr/share/texlive/texmf-dist/fonts/type1/public/kpfonts/jkpex.pfb" 1268268695 26063 d0c01419499cfc86ce6e24338c9c47c4 ""
  "/usr/share/texlive/texmf-dist/fonts/type1/public/kpfonts/jkpmi.pfb" 1268268695 29813 d05f8d6ea0d8afa920af22dddafc33f2 ""
  "/usr/share/texlive/texmf-dist/fonts/type1/public/kpfonts/jkpmia.pfb" 1268268695 30461 69b749e6d9e6ecbcbda833c4699db58d ""
  "/usr/share/texlive/texmf-dist/fonts/type1/public/kpfonts/jkpmit8a.pfb" 1268268695 37692 ff65f49f493de879aca846e1811bfa1f ""
  "/usr/share/texlive/texmf-dist/fonts/type1/public/kpfonts/jkpmite.pfb" 1240420913 18608 06d2f51777b5d4d05ebda01164ec2efc ""
  "/usr/share/texlive/texmf-dist/fonts/type1/public/kpfonts/jkpmn8a.pfb" 1240420913 35294 e88bb6b7bdd82f594dee041ddea9423c ""
  "/usr/share/texlive/texmf-dist/fonts/type1/public/kpfonts/jkpmne.pfb" 1240420913 18013 a3754f8df0b4dd3a76b5353fabb31650 ""
  "/usr/share/texlive/texmf-dist/fonts/type1/public/kpfonts/jkpmsc8a.pfb" 1240420913 35145 c0d7a82f6be81407f39e1a6922b63148 ""
  "/usr/share/texlive/texmf-dist/fonts/type1/public/kpfonts/jkpssbn8a.pfb" 1271810743 26954 1b00d15ea1c8813fb0d430277fda3637 ""
  "/usr/share/texlive/texmf-dist/fonts/type1/public/kpfonts/jkpsy.pfb" 1201048802 25860 1e4d17fc7bf1d0b47e9b47e6099f1971 ""
  "/usr/share/texlive/texmf-dist/fonts/type1/public/kpfonts/jkpsyc.pfb" 1201048802 30452 9ecaa7ccc78b5d3e23f0e8f870dd5088 ""
  "/usr/share/texlive/texmf-dist/fonts/type1/public/kpfonts/jkpttmn8a.pfb" 1240420913 29290 5f42ab27c55cdf1c35d41e42b8861898 ""
  "/usr/share/texlive/texmf-dist/fonts/type1/public/marvosym/marvosym.pfb" 1313968873 91705 188e103f30c94f64bce1570c4b989d07 ""
  "/usr/share/texlive/texmf-dist/fonts/vf/public/kpfonts/jkpbn7t.vf" 1240420913 984 cb10e437de92fc0b8181a6322b62c9aa ""
  "/usr/share/texlive/texmf-dist/fonts/vf/public/kpfonts/jkpmit7t.vf" 1240420913 988 c5856e737f2ded6ac9fd6b4b9c4edaf8 ""
  "/usr/share/texlive/texmf-dist/fonts/vf/public/kpfonts/jkpmn7t.vf" 1240420913 984 276aff85044bc68260a465c2ce58c070 ""
  "/usr/share/texlive/texmf-dist/fonts/vf/public/kpfonts/jkpmsc7t.vf" 1240420913 976 feeb42b10332287f3c08710ea5ccaa95 ""
  "/usr/share/texlive/texmf-dist/fonts/vf/public/kpfonts/jkpssbn7t.vf" 1240420913 988 20fd14b00b2068cf6c4478e417296a98 ""
  "/usr/share/texlive/texmf-dist/fonts/vf/public/kpfonts/jkpttmn7t.vf" 1240420913 972 ced53eb992de4243ecbd28cd4227c4c3 ""
  "/usr/share/texlive/texmf-dist/tex/context/base/mkii/supp-pdf.mkii" 1480098806 71627 94eb9990bed73c364d7f53f960cc8c5b ""
  "/usr/share/texlive/texmf-dist/tex/generic/ifxetex/ifxetex.sty" 1284331290 1458 43ab4710dc82f3edeabecd0d099626b2 ""
  "/usr/share/texlive/texmf-dist/tex/generic/oberdiek/gettitlestring.sty" 1480098815 8237 3b62ef1f7e2c23a328c814b3893bc11f ""
  "/usr/share/texlive/texmf-dist/tex/generic/oberdiek/hobsub-generic.sty" 1490564930 185082 1fb09d7d24834377f95006300bc91fd2 ""
  "/usr/share/texlive/texmf-dist/tex/generic/oberdiek/hobsub-hyperref.sty" 1480098815 70864 bcd5b216757bd619ae692a151d90085d ""
  "/usr/share/texlive/texmf-dist/tex/generic/oberdiek/infwarerr.sty" 1480098815 8253 473e0e41f9adadb1977e8631b8f72ea6 ""
  "/usr/share/texlive/texmf-dist/tex/generic/oberdiek/ltxcmds.sty" 1480098815 18425 5b3c0c59d76fac78978b5558e83c1f36 ""
  "/usr/share/texlive/texmf-dist/tex/generic/pgf/basiclayer/pgfcore.code.tex" 1288312291 1006 b103be0bfc8c1682ff1fa9760697a329 ""
  "/usr/share/texlive/texmf-dist/tex/generic/pgf/basiclayer/pgfcorearrows.code.tex" 1439074469 43226 167a99346bfe2676e3efcdde2d81fe45 ""
  "/usr/share/texlive/texmf-dist/tex/generic/pgf/basiclayer/pgfcoreexternal.code.tex" 1439074469 19302 4f089dc590e71f7331e6d5b5ea85273b ""
  "/usr/share/texlive/texmf-dist/tex/generic/pgf/basiclayer/pgfcoregraphicstate.code.tex" 1439074469 6068 edae1e768a7d8d8f0f00e953d2b0153e ""
  "/usr/share/texlive/texmf-dist/tex/generic/pgf/basiclayer/pgfcoreimage.code.tex" 1393459310 7041 a891ad72049e17c4e366c40ca37b0ccb ""
  "/usr/share/texlive/texmf-dist/tex/generic/pgf/basiclayer/pgfcorelayers.code.tex" 1393459310 4625 40c07e9f6f2f7c674704b3f2055560ce ""
  "/usr/share/texlive/texmf-dist/tex/generic/pgf/basiclayer/pgfcoreobjects.code.tex" 1203877327 2631 7eefa6cdbefd8d4e2bad7262cf1094cd ""
  "/usr/share/texlive/texmf-dist/tex/generic/pgf/basiclayer/pgfcorepathconstruct.code.tex" 1393459310 43477 81143b33d9ebafdeead07ede13372427 ""
  "/usr/share/texlive/texmf-dist/tex/generic/pgf/basiclayer/pgfcorepathprocessing.code.tex" 1393459310 17436 8d99d4113be311daf23deff86991ee7d ""
  "/usr/share/texlive/texmf-dist/tex/generic/pgf/basiclayer/pgfcorepathusage.code.tex" 1439074469 20772 c57e34db4aa7b1da013169d04b743eac ""
  "/usr/share/texlive/texmf-dist/tex/generic/pgf/basiclayer/pgfcorepatterns.code.tex" 1393459310 9641 711f0edc22c180a5caf168b6e8970057 ""
  "/usr/share/texlive/texmf-dist/tex/generic/pgf/basiclayer/pgfcorepoints.code.tex" 1393459310 34516 658a71478d21df554bce9d9cd436203a ""
  "/usr/share/texlive/texmf-dist/tex/generic/pgf/basiclayer/pgfcorequick.code.tex" 1288312291 3052 e5672c657232fd63b0a9853b0746297c ""
  "/usr/share/texlive/texmf-dist/tex/generic/pgf/basiclayer/pgfcorescopes.code.tex" 1439074469 16669 4ec6e40088fc6de6334b443fe2dc59f0 ""
  "/usr/share/texlive/texmf-dist/tex/generic/pgf/basiclayer/pgfcoreshade.code.tex" 1393459310 21541 4cd19f8ff7dd74d5aa7d803a6397af84 ""
  "/usr/share/texlive/texmf-dist/tex/generic/pgf/basiclayer/pgfcoretransformations.code.tex" 1439074469 19998 d77fef95c7369827753d17fd11be19c4 ""
  "/usr/share/texlive/texmf-dist/tex/generic/pgf/basiclayer/pgfcoretransparency.code.tex" 1393459310 8943 2e2495b057f8f0035b5568394d489963 ""
  "/usr/share/texlive/texmf-dist/tex/generic/pgf/frontendlayer/tikz/libraries/tikzlibrarytopaths.code.tex" 1288312291 11599 d694704a88e2f9007c996d3a6a4d629c ""
  "/usr/share/texlive/texmf-dist/tex/generic/pgf/frontendlayer/tikz/tikz.code.tex" 1439074469 176652 1c2926908e2b356d454795c35385d580 ""
  "/usr/share/texlive/texmf-dist/tex/generic/pgf/libraries/pgflibraryplothandlers.code.tex" 1393459310 32969 dbcfd5a7de6a0f7255c333ef60287d59 ""
  "/usr/share/texlive/texmf-dist/tex/generic/pgf/math/pgfmath.code.tex" 1393459310 454 9e9e7c99f4da4f41698be21eaef4938e ""
  "/usr/share/texlive/texmf-dist/tex/generic/pgf/math/pgfmathcalc.code.tex" 1393459310 13416 940ea6971d7a65dc440d3479939c66ae ""
  "/usr/share/texlive/texmf-dist/tex/generic/pgf/math/pgfmathfloat.code.tex" 1439074469 94097 62ac62cda46eb715560dc27f9ed6e8b1 ""
  "/usr/share/texlive/texmf-dist/tex/generic/pgf/math/pgfmathfunctions.base.code.tex" 1393459310 9375 5adc70f722abd29fc250d59e0694b548 ""
  "/usr/share/texlive/texmf-dist/tex/generic/pgf/math/pgfmathfunctions.basic.code.tex" 1439074469 22069 7c21c42b15718ce922f36235be360490 ""
  "/usr/share/texlive/texmf-dist/tex/generic/pgf/math/pgfmathfunctions.code.tex" 1439074469 8210 a7be5b52ef3d2c087b7dc3d52898b67e ""
  "/usr/share/texlive/texmf-dist/tex/generic/pgf/math/pgfmathfunctions.comparison.code.tex" 1288312291 3534 c7f28fbac13616513e513efe93b8569b ""
  "/usr/share/texlive/texmf-dist/tex/generic/pgf/math/pgfmathfunctions.integerarithmetics.code.tex" 1393459310 3167 7c9394e79aac27db96a92f9b2792b858 ""
  "/usr/share/texlive/texmf-dist/tex/generic/pgf/math/pgfmathfunctions.misc.code.tex" 1439074469 9289 261407875b9dbb0194691c3eb893610f ""
  "/usr/share/texlive/texmf-dist/tex/generic/pgf/math/pgfmathfunctions.random.code.tex" 1439074469 7078 946ddf4a7e57219b6afdbad98eb6731b ""
  "/usr/share/texlive/texmf-dist/tex/generic/pgf/math/pgfmathfunctions.round.code.tex" 1288312291 2688 139c6abc86761a6190c2f4bef5d752be ""
  "/usr/share/texlive/texmf-dist/tex/generic/pgf/math/pgfmathfunctions.trigonometric.code.tex" 1439074469 92284 dcf023dbaa84e6c50e11c2f79fe8cfa6 ""
  "/usr/share/texlive/texmf-dist/tex/generic/pgf/math/pgfmathparser.code.tex" 1439074469 35430 046e15fbb65e74d8f0e7945f99741fdb ""
  "/usr/share/texlive/texmf-dist/tex/generic/pgf/math/pgfmathutil.code.tex" 1393459310 7099 f44d505bae6c7c2b933cdd63441db4b9 ""
  "/usr/share/texlive/texmf-dist/tex/generic/pgf/modules/pgfmodulematrix.code.tex" 1393459310 20934 2328bd2e04520e1ab077ac4ee13b8935 ""
  "/usr/share/texlive/texmf-dist/tex/generic/pgf/modules/pgfmoduleplot.code.tex" 1439074469 16203 83cbe1220e389eeee283a6168f9a567b ""
  "/usr/share/texlive/texmf-dist/tex/generic/pgf/modules/pgfmoduleshapes.code.tex" 1439074469 42906 d54376d96df1a2ae2d33fb722236d8e9 ""
  "/usr/share/texlive/texmf-dist/tex/generic/pgf/systemlayer/pgf.cfg" 1288312291 978 15af626ebd3d4d790aac19170dac04f2 ""
  "/usr/share/texlive/texmf-dist/tex/generic/pgf/systemlayer/pgfsys-common-pdf.def" 1393459310 5437 d91f93ed61ecdc57e119849b2d784a0b ""
  "/usr/share/texlive/texmf-dist/tex/generic/pgf/systemlayer/pgfsys-pdftex.def" 1439074469 13507 809d848d9262638e1b1705a68a73c566 ""
  "/usr/share/texlive/texmf-dist/tex/generic/pgf/systemlayer/pgfsys.code.tex" 1439074469 35113 2ccc50c1c9573e4bac9230d030f9c67c ""
  "/usr/share/texlive/texmf-dist/tex/generic/pgf/systemlayer/pgfsysprotocol.code.tex" 1203877327 1983 b5994ebbcee17f1ba3d29bb1bd696fcf ""
  "/usr/share/texlive/texmf-dist/tex/generic/pgf/systemlayer/pgfsyssoftpath.code.tex" 1393459310 7881 d459d6057e13d10ce7a227ae44b7295e ""
  "/usr/share/texlive/texmf-dist/tex/generic/pgf/utilities/pgffor.code.tex" 1393459310 22211 d696ef78c12269178882d218b2cf191d ""
  "/usr/share/texlive/texmf-dist/tex/generic/pgf/utilities/pgfkeys.code.tex" 1393459310 36194 e194ef4e0b396b531a3891feb4b1cc22 ""
  "/usr/share/texlive/texmf-dist/tex/generic/pgf/utilities/pgfkeysfiltered.code.tex" 1393459310 33377 af391d6ad1bfcbe2278e191f48e43ba8 ""
  "/usr/share/texlive/texmf-dist/tex/generic/pgf/utilities/pgfrcs.code.tex" 1440888734 2536 a3b0529d815a2759ba157b56610a6377 ""
  "/usr/share/texlive/texmf-dist/tex/generic/pgf/utilities/pgfutil-common-lists.tex" 1393459310 6833 114eda2cf1d348e0e7e477a1a4dc1941 ""
  "/usr/share/texlive/texmf-dist/tex/generic/pgf/utilities/pgfutil-common.tex" 1439074469 16501 ab0135765e27b6b8dae047831fe84818 ""
  "/usr/share/texlive/texmf-dist/tex/generic/pgf/utilities/pgfutil-latex.def" 1439074469 5544 294baac9629ba59f675b1f2027ad7136 ""
  "/usr/share/texlive/texmf-dist/tex/latex/amscls/amsthm.sty" 1428861406 12225 3cca0d18522255979a1047206228b9d0 ""
  "/usr/share/texlive/texmf-dist/tex/latex/amsfonts/amsfonts.sty" 1359763108 5949 3f3fd50a8cc94c3d4cbf4fc66cd3df1c ""
  "/usr/share/texlive/texmf-dist/tex/latex/amsfonts/umsa.fd" 1359763108 961 6518c6525a34feb5e8250ffa91731cff ""
  "/usr/share/texlive/texmf-dist/tex/latex/amsfonts/umsb.fd" 1359763108 961 d02606146ba5601b5645f987c92e6193 ""
  "/usr/share/texlive/texmf-dist/tex/latex/amsmath/amsbsy.sty" 1456875012 2210 5c54ab129b848a5071554186d0168766 ""
  "/usr/share/texlive/texmf-dist/tex/latex/amsmath/amsgen.sty" 1456875012 4160 c115536cf8d4ff25aa8c1c9bc4ecb79a ""
  "/usr/share/texlive/texmf-dist/tex/latex/amsmath/amsmath.sty" 1467147727 82033 ff9a037b5bad3f86db2c1a9e5c8160c3 ""
  "/usr/share/texlive/texmf-dist/tex/latex/amsmath/amsopn.sty" 1459635588 4115 318a66090112f3aa3f415aeb6fe8540f ""
  "/usr/share/texlive/texmf-dist/tex/latex/amsmath/amstext.sty" 1456875012 2431 fe3078ec12fc30287f568596f8e0b948 ""
  "/usr/share/texlive/texmf-dist/tex/latex/base/article.cls" 1480098821 19821 310da678527a7dfe2a02c88af38079b7 ""
  "/usr/share/texlive/texmf-dist/tex/latex/base/inputenc.sty" 1480098821 4732 d63eda807ac82cca2ca8488efd31a966 ""
  "/usr/share/texlive/texmf-dist/tex/latex/base/omsenc.dfu" 1487721667 2004 ac51aeac484f08c01026120d62677eca ""
  "/usr/share/texlive/texmf-dist/tex/latex/base/ot1enc.dfu" 1487721667 3181 1cb3e9ad01f4a01127b2ffd821bfeec7 ""
  "/usr/share/texlive/texmf-dist/tex/latex/base/size11.clo" 1480098821 8308 f91506bb4df6d8527331f7bbeaf0e63c ""
  "/usr/share/texlive/texmf-dist/tex/latex/base/t1enc.dfu" 1487721667 11255 9d97362866549d3d3c994b5f28d1b9b5 ""
  "/usr/share/texlive/texmf-dist/tex/latex/base/textcomp.sty" 1492297155 16154 f2c73e20ca771d534a8516c62c6b0eae ""
  "/usr/share/texlive/texmf-dist/tex/latex/base/ts1cmr.fd" 1480098821 2217 d274654bda1292013bdf48d5f720a495 ""
  "/usr/share/texlive/texmf-dist/tex/latex/base/ts1enc.def" 1480098821 7767 aa88823823f5e767d79ea1166ab1ae74 ""
  "/usr/share/texlive/texmf-dist/tex/latex/base/ts1enc.dfu" 1487721667 4919 76510afd60e8282294f944c2f9f5103b ""
  "/usr/share/texlive/texmf-dist/tex/latex/base/utf8.def" 1487721667 7784 325a2a09984cb5c4ff230f9867145ad3 ""
  "/usr/share/texlive/texmf-dist/tex/latex/cite/cite.sty" 1425427964 26218 19edeff8cdc2bcb704e8051dc55eb5a7 ""
  "/usr/share/texlive/texmf-dist/tex/latex/fancyhdr/fancyhdr.sty" 1160175134 20521 e5d13d98d57bd53d4fed3aa61bd29c86 ""
  "/usr/share/texlive/texmf-dist/tex/latex/fancyvrb/fancyvrb.sty" 1274829816 45360 a0833d32f1b541964596b02870342d5a ""
  "/usr/share/texlive/texmf-dist/tex/latex/graphics-cfg/color.cfg" 1459978653 1213 620bba36b25224fa9b7e1ccb4ecb76fd ""
  "/usr/share/texlive/texmf-dist/tex/latex/graphics-cfg/graphics.cfg" 1459978653 3103 f32642b1cd56c010cdfb6545539b7f0b ""
  "/usr/share/texlive/texmf-dist/tex/latex/graphics-def/pdftex.def" 1468449179 57848 020e44545ff7e21278b080e3175d3354 ""
  "/usr/share/texlive/texmf-dist/tex/latex/graphics/color.sty" 1462915952 6883 23a1cf7539666cc26042e9939b5d08c9 ""
  "/usr/share/texlive/texmf-dist/tex/latex/graphics/dvipsnam.def" 1454284088 4945 3b3a8face751255856839a3489e83341 ""
  "/usr/share/texlive/texmf-dist/tex/latex/graphics/graphics.sty" 1462915952 14391 bd64a9e5d07473b936423b5f3280ed2c ""
  "/usr/share/texlive/texmf-dist/tex/latex/graphics/graphicx.sty" 1428932888 8125 557ab9f1bfa80d369fb45a914aa8a3b4 ""
  "/usr/share/texlive/texmf-dist/tex/latex/graphics/keyval.sty" 1428932888 2594 d18d5e19aa8239cf867fa670c556d2e9 ""
  "/usr/share/texlive/texmf-dist/tex/latex/graphics/trig.sty" 1454284088 3980 0a268fbfda01e381fa95821ab13b6aee ""
  "/usr/share/texlive/texmf-dist/tex/latex/hyperref/hpdftex.def" 1518041854 51699 9069fc983fff0db91d59a15af144ad62 ""
  "/usr/share/texlive/texmf-dist/tex/latex/hyperref/hyperref.sty" 1518041854 234088 2c849389d62d41c593d9f5176c4116ab ""
  "/usr/share/texlive/texmf-dist/tex/latex/hyperref/nameref.sty" 1480098831 12949 81e4e808884a8f0e276b69410e234656 ""
  "/usr/share/texlive/texmf-dist/tex/latex/hyperref/pd1enc.def" 1518041854 14098 4e70bf396c7c265bd8b0e5cab3fd3d4d ""
  "/usr/share/texlive/texmf-dist/tex/latex/kpfonts/kpfonts.sty" 1284768416 72676 856b52ab339cd8bb2dd28d43225e99b5 ""
  "/usr/share/texlive/texmf-dist/tex/latex/kpfonts/omljkp.fd" 1177460106 445 26f1bace35a25cdb94155b5fbf5a67d4 ""
  "/usr/share/texlive/texmf-dist/tex/latex/kpfonts/omsjkp.fd" 1201048802 1616 7fef3748796a6ffce8f2ffd1956830e2 ""
  "/usr/share/texlive/texmf-dist/tex/latex/kpfonts/omxjkp.fd" 1177460106 306 dd10f36111fcddf8bc82442f71d26f9f ""
  "/usr/share/texlive/texmf-dist/tex/latex/kpfonts/ot1jkp.fd" 1221587958 1133 632cc5712ce26c7333f51ef610f28017 ""
  "/usr/share/texlive/texmf-dist/tex/latex/kpfonts/ot1jkpss.fd" 1221587958 1203 8a70ec120e6ce21192d3050719324356 ""
  "/usr/share/texlive/texmf-dist/tex/latex/kpfonts/ot1jkptt.fd" 1177460106 818 f86e58286fece055795f297a099853b4 ""
  "/usr/share/texlive/texmf-dist/tex/latex/kpfonts/ujkpexa.fd" 1177460106 320 b222867dc9ceaccb99f5c780072d4c87 ""
  "/usr/share/texlive/texmf-dist/tex/latex/kpfonts/ujkpmia.fd" 1177460106 326 2782e82a7edb148e7d8a2ffed10be5e5 ""
  "/usr/share/texlive/texmf-dist/tex/latex/kpfonts/ujkpsyc.fd" 1177460106 320 8b7ec5275c6b1e5ed11702a65ef13eb9 ""
  "/usr/share/texlive/texmf-dist/tex/latex/latexconfig/epstopdf-sys.cfg" 1279039959 678 4792914a8f45be57bb98413425e4c7af ""
  "/usr/share/texlive/texmf-dist/tex/latex/latexconfig/hyperref.cfg" 1254097189 235 6031e5765137be07eed51a510b2b8fb7 ""
  "/usr/share/texlive/texmf-dist/tex/latex/lipsum/lipsum.sty" 1406996843 103491 f3a8d28ba533bcdb24167b15de14ff22 ""
  "/usr/share/texlive/texmf-dist/tex/latex/marvosym/marvosym.sty" 1333989323 9393 ceaf2ea8eb2c81fdb168323fc5fffc89 ""
  "/usr/share/texlive/texmf-dist/tex/latex/marvosym/umvs.fd" 1169658918 111 395c88825a74c0d7a4afff69645f4d03 ""
  "/usr/share/texlive/texmf-dist/tex/latex/ms/everyshi.sty" 1177890616 3878 6aa7c08ff2621006e0603349e40a30a8 ""
  "/usr/share/texlive/texmf-dist/tex/latex/oberdiek/auxhook.sty" 1480098836 3834 4363110eb0ef1eb2b71c8fcbcdb6c357 ""
  "/usr/share/texlive/texmf-dist/tex/latex/oberdiek/epstopdf-base.sty" 1480098836 12095 5337833c991d80788a43d3ce26bd1c46 ""
  "/usr/share/texlive/texmf-dist/tex/latex/oberdiek/grfext.sty" 1480098836 7075 2fe3d848bba95f139de11ded085e74aa ""
  "/usr/share/texlive/texmf-dist/tex/latex/oberdiek/kvoptions.sty" 1480098836 22417 1d9df1eb66848aa31b18a593099cf45c ""
  "/usr/share/texlive/texmf-dist/tex/latex/oberdiek/rerunfilecheck.sty" 1480098836 9581 023642318cef9f4677efe364de1e2a27 ""
  "/usr/share/texlive/texmf-dist/tex/latex/pgf/basiclayer/pgf.sty" 1439074469 1197 8a80cdde14696a9198f1793a55dcf332 ""
  "/usr/share/texlive/texmf-dist/tex/latex/pgf/basiclayer/pgfcore.sty" 1288312291 410 5bf12ea7330e5f12c445332a4fe9a263 ""
  "/usr/share/texlive/texmf-dist/tex/latex/pgf/compatibility/pgfcomp-version-0-65.sty" 1203877327 21115 facf03b7dbe5ea2f5f1dce1ac84b5d05 ""
  "/usr/share/texlive/texmf-dist/tex/latex/pgf/compatibility/pgfcomp-version-1-18.sty" 1203727794 1091 d9163d29def82ee90370c8a63667742c ""
  "/usr/share/texlive/texmf-dist/tex/latex/pgf/frontendlayer/tikz.sty" 1203877327 339 592cf35cba3d400082b8a9a5d0199d70 ""
  "/usr/share/texlive/texmf-dist/tex/latex/pgf/math/pgfmath.sty" 1393459310 306 0796eafca5e159e6ec2167a6d22d81b1 ""
  "/usr/share/texlive/texmf-dist/tex/latex/pgf/systemlayer/pgfsys.sty" 1393459310 443 0b2e781830192df35c0fd357cf13e26e ""
  "/usr/share/texlive/texmf-dist/tex/latex/pgf/utilities/pgffor.sty" 1393459310 348 8927fde343487e003b01a4c2ca34073b ""
  "/usr/share/texlive/texmf-dist/tex/latex/pgf/utilities/pgfkeys.sty" 1203727794 274 4cad6e665cc93ac2ac979039a94fa1e1 ""
  "/usr/share/texlive/texmf-dist/tex/latex/pgf/utilities/pgfrcs.sty" 1203877327 325 2bcd023400636339210573e2b3ee298b ""
  "/usr/share/texlive/texmf-dist/tex/latex/titlesec/titlesec.sty" 1458858524 37387 afa86533e532701faf233f3f592c61e0 ""
  "/usr/share/texlive/texmf-dist/tex/latex/url/url.sty" 1388531844 12796 8edb7d69a20b857904dd0ea757c14ec9 ""
  "/usr/share/texlive/texmf-dist/tex/latex/xcolor/xcolor.sty" 1463002160 55589 34128738f682d033422ca125f82e5d62 ""
  "/usr/share/texlive/texmf-dist/web2c/texmf.cnf" 1541097551 32807 b0bf385e55c2928f0f920997ca426741 ""
  "figs/configurations.pdf" 1565978037 22349 b1435c2636375c7754e03f753ed04686 ""
  "pat.sty" 1561487654 3359 d02338a7bdea6d0a60e01166ce5d10ec ""
  "patmorin.cls" 1561487654 3986 b60c491619843f31f3ccc4012a9a008c ""
  "template.aux" 1565978607 3226 fb95b65eaccc03fd8b2cb08db4c5e529 "pdflatex"
  "template.bbl" 1565978607 1602 bc822ce3fb166baf01c283c0f2c0d3ca "bibtex template"
  "template.out" 1565978607 702 4928243181c55f4539c8e5437ed2c33a "pdflatex"
  "template.tex" 1565978590 24774 fcafa5889a938b01d0f986dbf35a9913 ""
  (generated)
  "template.out"
  "template.pdf"
  "template.log"
  "template.aux"
