\relax 
\providecommand\hyper@newdestlabel[2]{}
\providecommand\HyperFirstAtBeginDocument{\AtBeginDocument}
\HyperFirstAtBeginDocument{\ifx\hyper@anchor\@undefined
\global\let\oldcontentsline\contentsline
\gdef\contentsline#1#2#3#4{\oldcontentsline{#1}{#2}{#3}}
\global\let\oldnewlabel\newlabel
\gdef\newlabel#1#2{\newlabelxx{#1}#2}
\gdef\newlabelxx#1#2#3#4#5#6{\oldnewlabel{#1}{{#2}{#3}}}
\AtEndDocument{\ifx\hyper@anchor\@undefined
\let\contentsline\oldcontentsline
\let\newlabel\oldnewlabel
\fi}
\fi}
\global\let\hyper@last\relax 
\gdef\HyperFirstAtBeginDocument#1{#1}
\providecommand\HyField@AuxAddToFields[1]{}
\providecommand\HyField@AuxAddToCoFields[2]{}
\citation{test5,test6}
\citation{test2}
\@writefile{toc}{\contentsline {section}{\numberline {1}Introduction}{1}{section.1}}
\@writefile{toc}{\contentsline {subsection}{\numberline {1.1}Acknowledgements}{1}{subsection.1.1}}
\@writefile{toc}{\contentsline {subsection}{\numberline {1.2}Problem}{1}{subsection.1.2}}
\@writefile{toc}{\contentsline {paragraph}{}{1}{paragraph*.1}}
\@writefile{toc}{\contentsline {paragraph}{}{1}{paragraph*.2}}
\citation{test3}
\citation{test4}
\citation{test7}
\citation{test2,test3}
\citation{test2}
\citation{test2}
\@writefile{toc}{\contentsline {paragraph}{}{2}{paragraph*.3}}
\@writefile{toc}{\contentsline {subsection}{\numberline {1.3}Model}{2}{subsection.1.3}}
\citation{test4}
\@writefile{toc}{\contentsline {section}{\numberline {2}Deterministic Algorithm for Unknown Distance}{3}{section.2}}
\@writefile{toc}{\contentsline {subsection}{\numberline {2.1}Proposed Algorithm}{3}{subsection.2.1}}
\@writefile{toc}{\contentsline {subsubsection}{\numberline {2.1.1}Fact}{4}{subsubsection.2.1.1}}
\newlabel{fact-2}{{2}{4}{Fact}{Item.2}{}}
\newlabel{fact-3}{{3}{4}{Fact}{Item.3}{}}
\newlabel{fact-4}{{4}{4}{Fact}{Item.4}{}}
\newlabel{fact-6}{{6}{4}{Fact}{Item.6}{}}
\@writefile{lof}{\contentsline {figure}{\numberline {1}{\ignorespaces Showing a) convergent bit position, b) divergent bit position, c) same bit position}}{4}{figure.1}}
\newlabel{figure-iqndex}{{1}{4}{Showing a) convergent bit position, b) divergent bit position, c) same bit position}{figure.1}{}}
\@writefile{toc}{\contentsline {subsection}{\numberline {2.2}Existence of a Convergent/Divergent Bit}{4}{subsection.2.2}}
\newlabel{lemma-convergent}{{1}{4}{}{theorem.1}{}}
\@writefile{lof}{\contentsline {figure}{\numberline {2}{\ignorespaces Convergent bit of string $11110$ when off by at-most 4 bits}}{5}{figure.2}}
\newlabel{figure-index}{{2}{5}{Convergent bit of string $11110$ when off by at-most 4 bits}{figure.2}{}}
\@writefile{toc}{\contentsline {subsection}{\numberline {2.3}Worst Case Bit Required to meet}{5}{subsection.2.3}}
\newlabel{lemma-threshold-bit}{{2}{5}{}{theorem.2}{}}
\@writefile{toc}{\contentsline {section}{\numberline {3}Correctness and Analysis}{9}{section.3}}
\newlabel{lemma-sum}{{3}{9}{Correctness and Analysis}{section.3}{}}
\citation{test2,test3}
\bibdata{template}
\bibcite{test5}{1}
\bibcite{test6}{2}
\bibcite{test4}{3}
\bibcite{test2}{4}
\bibcite{test7}{5}
\bibcite{test3}{6}
\bibstyle{plain}
\@writefile{toc}{\contentsline {section}{\numberline {4}Summary}{10}{section.4}}
\newlabel{sec:summary}{{4}{10}{Summary}{section.4}{}}
